{
  "project_info": {
    "project_number": "212036887552",
    "firebase_url": "https://cotifarma-ofertadigital.firebaseio.com",
    "project_id": "cotifarma-ofertadigital",
    "storage_bucket": "cotifarma-ofertadigital.appspot.com"
  },
  "client": [
    {
      "client_info": {
        "mobilesdk_app_id": "1:212036887552:android:94cdbf37561cbd89",
        "android_client_info": {
          "package_name": "br.ofertadigital.cotifarma"
        }
      },
      "oauth_client": [
        {
          "client_id": "212036887552-2v0980c2h7go3icheos09h3lvautkjnp.apps.googleusercontent.com",
          "client_type": 3
        }
      ],
      "api_key": [
        {
          "current_key": "AIzaSyAYSNugO4UKHJQrJEk4HN0wvTXaZKsbwZY"
        }
      ],
      "services": {
        "analytics_service": {
          "status": 1
        },
        "appinvite_service": {
          "status": 1,
          "other_platform_oauth_client": []
        },
        "ads_service": {
          "status": 2
        }
      }
    }
  ],
  "configuration_version": "1"
}